<svg width="249" height="335" viewBox="0 0 249 335" fill="none" xmlns="http://www.w3.org/2000/svg">
<path fill-rule="evenodd" clip-rule="evenodd" d="M117.078 0.560326C116.918 0.724264 114.337 1.08563 111.341 1.36353C106.268 1.83435 104.429 2.11025 98.2889 3.32429C94.2447 4.12399 92.0777 4.68629 87.6883 6.07427C81.0186 8.18348 77.6758 9.38902 77.2123 9.85335C76.9455 10.1208 74.4981 11.1164 71.8497 12.0345C70.9577 12.3439 70.2284 12.7668 70.2284 12.9747C70.2284 13.1821 69.7794 13.352 69.2307 13.352C68.6819 13.352 68.233 13.5305 68.233 13.7489C68.233 13.9673 66.2126 15.1384 63.7433 16.3509C61.274 17.5635 59.2536 18.707 59.2536 18.892C59.2536 19.0774 58.5801 19.5082 57.757 19.8496C56.9339 20.191 56.2605 20.6408 56.2605 20.8492C56.2605 21.0577 55.587 21.5075 54.7639 21.8489C53.9408 22.1902 53.2673 22.6526 53.2673 22.8755C53.2673 23.0984 52.8298 23.4203 52.2951 23.5902C51.7603 23.7601 50.6628 24.5064 49.8557 25.2481C49.049 25.9903 47.8927 26.9345 47.2856 27.3468C44.5663 29.1941 30.32 42.9405 30.32 43.7167C30.32 43.9386 29.8711 44.4439 29.3223 44.8403C28.7736 45.2366 28.3246 45.7584 28.3246 45.9998C28.3246 46.2407 27.6512 47.0689 26.8281 47.8391C26.005 48.6094 25.3315 49.487 25.3315 49.7889C25.3315 50.0913 25.107 50.3382 24.8327 50.3382C24.5583 50.3382 24.3338 50.6261 24.3338 50.9775C24.3338 51.3293 23.8848 51.9411 23.3361 52.3375C22.7873 52.7338 22.3384 53.4086 22.3384 53.8369C22.3384 54.2652 21.8894 54.94 21.3407 55.3363C20.7919 55.7327 20.343 56.3445 20.343 56.6963C20.343 57.0477 20.1185 57.3356 19.8441 57.3356C19.5697 57.3356 19.3453 57.673 19.3453 58.0853C19.3453 58.4977 19.1208 58.835 18.8464 58.835C18.572 58.835 18.3475 59.1724 18.3475 59.5848C18.3475 59.9971 18.1231 60.3345 17.8487 60.3345C17.5743 60.3345 17.3498 60.7843 17.3498 61.3341C17.3498 61.8839 17.1254 62.3337 16.851 62.3337C16.5766 62.3337 16.3521 62.6711 16.3521 63.0834C16.3521 63.4958 16.1276 63.8332 15.8533 63.8332C15.5789 63.8332 15.3544 64.283 15.3544 64.8328C15.3544 65.3826 15.1299 65.8324 14.8556 65.8324C14.5812 65.8324 14.3567 66.2822 14.3567 66.832C14.3567 67.3818 14.1322 67.8317 13.8579 67.8317C13.5835 67.8317 13.359 68.2815 13.359 68.8313C13.359 69.3811 13.1345 69.8309 12.8602 69.8309C12.5858 69.8309 12.3613 70.2807 12.3613 70.8305C12.3613 71.3803 12.1368 71.8302 11.8624 71.8302C11.5881 71.8302 11.3636 72.28 11.3636 72.8298C11.3636 73.3796 11.1391 73.8294 10.8647 73.8294C10.5904 73.8294 10.3659 74.3917 10.3659 75.079C10.3659 75.7662 10.1414 76.3285 9.86702 76.3285C9.59265 76.3285 9.36817 76.8908 9.36817 77.578C9.36817 78.2653 9.14369 78.8276 8.86932 78.8276C8.59495 78.8276 8.37046 79.2774 8.37046 79.8272C8.37046 80.377 8.14598 80.8268 7.87161 80.8268C7.59724 80.8268 7.37275 81.5015 7.37275 82.3262C7.37275 83.1509 7.14827 83.8257 6.8739 83.8257C6.59953 83.8257 6.37504 84.5004 6.37504 85.3251C6.37504 86.1498 6.15056 86.8246 5.87619 86.8246C5.60182 86.8246 5.37734 87.6118 5.37734 88.5739C5.37734 89.536 5.15285 90.3232 4.87848 90.3232C4.60411 90.3232 4.37963 91.1105 4.37963 92.0726C4.37963 93.0347 4.15514 93.8219 3.88077 93.8219C3.6064 93.8219 3.38192 94.8341 3.38192 96.0711C3.38192 97.3081 3.15743 98.3203 2.88307 98.3203C2.6087 98.3203 2.38421 99.4448 2.38421 100.819C2.38421 102.194 2.15973 103.318 1.88536 103.318C1.59702 103.318 1.3865 104.901 1.3865 107.067C1.3865 109.233 1.17599 110.816 0.887648 110.816C0.566885 110.816 0.388794 115.814 0.388794 124.81C0.388794 133.807 0.566885 224.805 0.887648 224.805C1.17599 224.805 1.3865 226.388 1.3865 228.554C1.3865 230.719 1.59702 232.302 1.88536 232.302C2.15973 232.302 2.38421 233.314 2.38421 234.551C2.38421 235.789 2.6087 236.801 2.88307 236.801C3.15743 236.801 3.38192 237.925 3.38192 239.3C3.38192 240.674 3.6064 241.799 3.88077 241.799C4.15514 241.799 4.37963 242.473 4.37963 243.298C4.37963 244.123 4.60411 244.798 4.87848 244.798C5.15285 244.798 5.37734 245.697 5.37734 246.797C5.37734 247.896 5.60182 248.796 5.87619 248.796C6.15056 248.796 6.37504 249.471 6.37504 250.296C6.37504 251.12 6.59953 251.795 6.8739 251.795C7.14827 251.795 7.37275 252.47 7.37275 253.294C7.37275 254.119 7.59724 254.794 7.87161 254.794C8.14598 254.794 8.37046 255.244 8.37046 255.794C8.37046 256.343 8.59495 256.793 8.86932 256.793C9.14369 256.793 9.36817 257.243 9.36817 257.793C9.36817 258.343 9.59265 258.792 9.86702 258.792C10.1414 258.792 10.3659 259.467 10.3659 260.292C10.3659 261.117 10.5904 261.791 10.8647 261.791C11.1391 261.791 11.3636 262.241 11.3636 262.791C11.3636 263.341 11.5881 263.791 11.8624 263.791C12.1368 263.791 12.3613 264.24 12.3613 264.79C12.3613 265.34 12.5858 265.79 12.8602 265.79C13.1345 265.79 13.359 266.24 13.359 266.789C13.359 267.339 13.5835 267.789 13.8579 267.789C14.1322 267.789 14.3567 268.239 14.3567 268.789C14.3567 269.338 14.5812 269.788 14.8556 269.788C15.1299 269.788 15.3544 270.238 15.3544 270.788C15.3544 271.338 15.5789 271.788 15.8533 271.788C16.1276 271.788 16.3521 272.125 16.3521 272.537C16.3521 272.95 16.5766 273.287 16.851 273.287C17.1254 273.287 17.3498 273.624 17.3498 274.037C17.3498 274.449 17.5743 274.786 17.8487 274.786C18.1231 274.786 18.3475 275.187 18.3475 275.676C18.3475 276.165 18.7965 276.889 19.3453 277.285C19.894 277.682 20.343 278.357 20.343 278.785C20.343 279.213 20.7919 279.888 21.3407 280.284C21.8894 280.681 22.3384 281.355 22.3384 281.784C22.3384 282.212 22.7873 282.887 23.3361 283.283C23.8848 283.68 24.3338 284.309 24.3338 284.682C24.3338 285.056 25.2317 286.225 26.3292 287.282C27.4267 288.338 28.3246 289.445 28.3246 289.742C28.3246 290.038 28.5491 290.281 28.8235 290.281C29.0979 290.281 29.3223 290.511 29.3223 290.792C29.3223 291.436 44.1423 306.275 44.7858 306.275C45.0462 306.275 46.2694 307.287 47.5041 308.524C48.7388 309.761 50.0423 310.773 50.4004 310.773C50.7586 310.773 51.3752 311.223 51.7708 311.773C52.1664 312.322 52.8398 312.772 53.2673 312.772C53.6949 312.772 54.3683 313.222 54.7639 313.772C55.1595 314.322 55.833 314.771 56.2605 314.771C56.688 314.771 57.3614 315.221 57.757 315.771C58.1526 316.321 58.8755 316.771 59.3638 316.771C59.8517 316.771 60.2513 316.968 60.2513 317.21C60.2513 317.452 60.9248 317.929 61.7479 318.27C62.571 318.612 63.2444 319.089 63.2444 319.33C63.2444 319.572 63.6934 319.77 64.2421 319.77C64.7909 319.77 65.2398 319.995 65.2398 320.269C65.2398 320.544 65.6888 320.769 66.2376 320.769C66.7863 320.769 67.2353 320.994 67.2353 321.269C67.2353 321.544 67.6842 321.769 68.233 321.769C68.7817 321.769 69.2307 321.994 69.2307 322.269C69.2307 322.544 69.6796 322.768 70.2284 322.768C70.7771 322.768 71.2261 322.993 71.2261 323.268C71.2261 323.543 71.6751 323.768 72.2238 323.768C72.7725 323.768 73.2215 323.993 73.2215 324.268C73.2215 324.543 73.895 324.768 74.7181 324.768C75.5412 324.768 76.2146 324.993 76.2146 325.268C76.2146 325.542 76.6636 325.767 77.2123 325.767C77.7611 325.767 78.2101 325.992 78.2101 326.267C78.2101 326.542 78.659 326.767 79.2078 326.767C79.7565 326.767 80.2055 326.992 80.2055 327.267C80.2055 327.542 80.8789 327.767 81.702 327.767C82.5251 327.767 83.1986 327.992 83.1986 328.266C83.1986 328.541 83.872 328.766 84.6952 328.766C85.5183 328.766 86.1917 328.991 86.1917 329.266C86.1917 329.541 87.0897 329.766 88.1871 329.766C89.2846 329.766 90.1826 329.991 90.1826 330.266C90.1826 330.541 90.856 330.765 91.6791 330.765C92.5022 330.765 93.1757 330.99 93.1757 331.265C93.1757 331.54 94.0736 331.765 95.1711 331.765C96.2686 331.765 97.1665 331.99 97.1665 332.265C97.1665 332.54 98.2889 332.765 99.6608 332.765C101.033 332.765 102.155 332.99 102.155 333.265C102.155 333.55 103.652 333.764 105.647 333.764C107.642 333.764 109.139 333.979 109.139 334.264C109.139 334.586 114.46 334.764 124.105 334.764C133.749 334.764 139.07 334.586 139.07 334.264C139.07 333.979 140.567 333.764 142.562 333.764C144.558 333.764 146.054 333.55 146.054 333.265C146.054 332.99 147.177 332.765 148.549 332.765C149.92 332.765 151.043 332.54 151.043 332.265C151.043 331.99 152.165 331.765 153.537 331.765C154.909 331.765 156.031 331.54 156.031 331.265C156.031 330.99 156.705 330.765 157.528 330.765C158.351 330.765 159.024 330.541 159.024 330.266C159.024 329.991 159.698 329.766 160.521 329.766C161.344 329.766 162.018 329.541 162.018 329.266C162.018 328.991 162.691 328.766 163.514 328.766C164.337 328.766 165.011 328.541 165.011 328.266C165.011 327.992 165.684 327.767 166.507 327.767C167.33 327.767 168.004 327.542 168.004 327.267C168.004 326.992 168.677 326.767 169.5 326.767C170.323 326.767 170.997 326.542 170.997 326.267C170.997 325.992 171.446 325.767 171.995 325.767C172.543 325.767 172.992 325.542 172.992 325.268C172.992 324.993 173.441 324.768 173.99 324.768C174.539 324.768 174.988 324.543 174.988 324.268C174.988 323.993 175.661 323.768 176.484 323.768C177.307 323.768 177.981 323.543 177.981 323.268C177.981 322.993 178.38 322.768 178.868 322.768C179.357 322.768 180.08 322.319 180.475 321.769C180.871 321.219 181.594 320.769 182.082 320.769C182.57 320.769 182.969 320.544 182.969 320.269C182.969 319.995 183.418 319.77 183.967 319.77C184.516 319.77 184.965 319.545 184.965 319.27C184.965 318.995 185.414 318.77 185.963 318.77C186.511 318.77 186.96 318.545 186.96 318.27C186.96 317.995 187.36 317.77 187.848 317.77C188.336 317.77 189.059 317.321 189.455 316.771C189.85 316.221 190.524 315.771 190.951 315.771C191.379 315.771 192.052 315.321 192.448 314.771C192.843 314.222 193.517 313.772 193.944 313.772C194.372 313.772 195.045 313.322 195.441 312.772C195.836 312.222 196.469 311.773 196.848 311.773C197.225 311.773 198.164 311.098 198.933 310.273C199.702 309.448 200.592 308.774 200.911 308.774C201.23 308.774 202.585 307.649 203.921 306.275C205.258 304.9 206.593 303.776 206.889 303.776C207.59 303.776 216.892 294.456 216.892 293.753C216.892 293.457 218.014 292.119 219.386 290.78C220.758 289.441 221.88 288.084 221.88 287.765C221.88 287.445 222.554 286.553 223.377 285.782C224.2 285.012 224.873 284.071 224.873 283.693C224.873 283.314 225.322 282.68 225.871 282.284C226.42 281.887 226.869 281.213 226.869 280.784C226.869 280.356 227.318 279.681 227.866 279.285C228.415 278.888 228.864 278.277 228.864 277.925C228.864 277.573 229.089 277.285 229.363 277.285C229.637 277.285 229.862 276.948 229.862 276.536C229.862 276.123 230.086 275.786 230.361 275.786C230.635 275.786 230.859 275.336 230.859 274.786C230.859 274.237 231.084 273.787 231.358 273.787C231.633 273.787 231.857 273.386 231.857 272.898C231.857 272.408 232.306 271.684 232.855 271.288C233.404 270.891 233.853 270.167 233.853 269.678C233.853 269.189 234.077 268.789 234.351 268.789C234.626 268.789 234.85 268.339 234.85 267.789C234.85 267.239 235.075 266.789 235.349 266.789C235.624 266.789 235.848 266.34 235.848 265.79C235.848 265.24 236.072 264.79 236.347 264.79C236.621 264.79 236.846 264.34 236.846 263.791C236.846 263.241 237.07 262.791 237.345 262.791C237.619 262.791 237.843 262.116 237.843 261.291C237.843 260.467 238.068 259.792 238.342 259.792C238.617 259.792 238.841 259.342 238.841 258.792C238.841 258.243 239.066 257.793 239.34 257.793C239.614 257.793 239.839 257.343 239.839 256.793C239.839 256.243 240.063 255.794 240.338 255.794C240.612 255.794 240.837 255.119 240.837 254.294C240.837 253.469 241.061 252.795 241.335 252.795C241.61 252.795 241.834 252.12 241.834 251.295C241.834 250.471 242.059 249.796 242.333 249.796C242.607 249.796 242.832 249.121 242.832 248.296C242.832 247.472 243.056 246.797 243.331 246.797C243.605 246.797 243.83 246.122 243.83 245.297C243.83 244.473 244.054 243.798 244.329 243.798C244.603 243.798 244.827 242.898 244.827 241.799C244.827 240.699 245.052 239.799 245.326 239.799C245.601 239.799 245.825 238.675 245.825 237.3C245.825 235.926 246.05 234.801 246.324 234.801C246.598 234.801 246.823 233.677 246.823 232.302C246.823 230.928 247.047 229.803 247.322 229.803C247.621 229.803 247.82 227.804 247.82 224.805C247.82 221.806 248.02 219.807 248.319 219.807C248.634 219.807 248.818 130.475 248.818 124.81C248.818 119.146 248.634 115.814 248.319 115.814C248.02 115.814 247.82 113.814 247.82 110.816C247.82 107.817 247.621 105.817 247.322 105.817C247.047 105.817 246.823 104.693 246.823 103.318C246.823 101.944 246.598 100.819 246.324 100.819C246.05 100.819 245.825 99.6947 245.825 98.3203C245.825 96.9458 245.601 95.8212 245.326 95.8212C245.052 95.8212 244.827 94.9215 244.827 93.8219C244.827 92.7224 244.603 91.8227 244.329 91.8227C244.054 91.8227 243.83 91.1479 243.83 90.3232C243.83 89.4986 243.605 88.8238 243.331 88.8238C243.056 88.8238 242.832 88.1491 242.832 87.3244C242.832 86.4997 242.607 85.8249 242.333 85.8249C242.059 85.8249 241.834 85.1502 241.834 84.3255C241.834 83.5008 241.61 82.8261 241.335 82.8261C241.061 82.8261 240.837 82.1513 240.837 81.3266C240.837 80.5019 240.612 79.8272 240.338 79.8272C240.063 79.8272 239.839 79.3773 239.839 78.8276C239.839 78.2778 239.614 77.8279 239.34 77.8279C239.066 77.8279 238.841 77.2656 238.841 76.5784C238.841 75.8912 238.617 75.3289 238.342 75.3289C238.068 75.3289 237.843 74.7666 237.843 74.0793C237.843 73.3921 237.619 72.8298 237.345 72.8298C237.07 72.8298 236.846 72.38 236.846 71.8302C236.846 71.2804 236.621 70.8305 236.347 70.8305C236.072 70.8305 235.848 70.3807 235.848 69.8309C235.848 69.2811 235.624 68.8313 235.349 68.8313C235.075 68.8313 234.85 68.3815 234.85 67.8317C234.85 67.2819 234.626 66.832 234.351 66.832C234.077 66.832 233.853 66.3822 233.853 65.8324C233.853 65.2826 233.628 64.8328 233.354 64.8328C233.079 64.8328 232.855 64.4954 232.855 64.0831C232.855 63.6707 232.63 63.3333 232.356 63.3333C232.082 63.3333 231.857 62.8835 231.857 62.3337C231.857 61.7839 231.633 61.3341 231.358 61.3341C231.084 61.3341 230.859 60.9967 230.859 60.5844C230.859 60.172 230.635 59.8347 230.361 59.8347C230.086 59.8347 229.862 59.4973 229.862 59.0849C229.862 58.6726 229.637 58.3352 229.363 58.3352C229.089 58.3352 228.864 57.9978 228.864 57.5855C228.864 57.1732 228.64 56.8358 228.365 56.8358C228.091 56.8358 227.866 56.4984 227.866 56.0861C227.866 55.6737 227.642 55.3363 227.367 55.3363C227.093 55.3363 226.869 54.999 226.869 54.5866C226.869 54.1743 226.644 53.8369 226.37 53.8369C226.095 53.8369 225.871 53.4995 225.871 53.0872C225.871 52.6748 225.646 52.3375 225.372 52.3375C225.098 52.3375 224.873 52.0496 224.873 51.6982C224.873 51.3463 224.424 50.7346 223.876 50.3382C223.327 49.9419 222.878 49.3796 222.878 49.0887C222.878 48.7978 222.429 48.2355 221.88 47.8391C221.331 47.4428 220.882 46.921 220.882 46.6796C220.882 46.4387 220.209 45.6105 219.386 44.8403C218.563 44.0701 217.889 43.2983 217.889 43.1254C217.889 42.7386 206.575 31.5692 204.438 29.8459C203.586 29.1586 202.248 28.034 201.464 27.3468C200.681 26.6596 199.546 25.7599 198.941 25.3476C198.337 24.9352 197.387 24.211 196.832 23.7382C196.276 23.2653 195.399 22.744 194.883 22.5796C194.367 22.4157 193.944 22.0988 193.944 21.8759C193.944 21.6529 193.271 21.1906 192.448 20.8492C191.625 20.5079 190.951 20.069 190.951 19.8746C190.951 19.6797 189.829 18.9939 188.457 18.3502C187.085 17.7064 185.963 16.9932 185.963 16.7653C185.963 16.5373 185.514 16.3509 184.965 16.3509C184.416 16.3509 183.967 16.1725 183.967 15.9541C183.967 15.3688 171.036 9.35354 169.778 9.35354C169.397 9.35354 169.01 9.1801 168.918 8.96768C168.761 8.60232 162.003 6.33417 156.031 4.6433C151.544 3.37277 143.155 1.83035 137.823 1.29555C131.523 0.664287 117.465 0.165973 117.078 0.560326Z" fill="#F8CFC0"/>
</svg>
